Contador_3bits/simulation/qsim/contador.msim.vcd
$comment
	File created using the following command:
		vcd file contador.msim.vcd -direction
$end
$date
	Tue Sep 25 16:17:35 2018
$end
$version
	ModelSim Version 10.1d
$end
$timescale
	1ps
$end
$scope module contador_vlg_vec_tst $end
$var reg 1 ! clock $end
$var reg 1 " E $end
$var reg 1 # R $end
$var reg 1 $ S $end
$var wire 1 % q [2] $end
$var wire 1 & q [1] $end
$var wire 1 ' q [0] $end
$var wire 1 ( saida [6] $end
$var wire 1 ) saida [5] $end
$var wire 1 * saida [4] $end
$var wire 1 + saida [3] $end
$var wire 1 , saida [2] $end
$var wire 1 - saida [1] $end
$var wire 1 . saida [0] $end
$var wire 1 / sampler $end
$scope module i1 $end
$var wire 1 0 gnd $end
$var wire 1 1 vcc $end
$var wire 1 2 unknown $end
$var tri1 1 3 devclrn $end
$var tri1 1 4 devpor $end
$var tri1 1 5 devoe $end
$var wire 1 6 R~combout $end
$var wire 1 7 clock~combout $end
$var wire 1 8 E~combout $end
$var wire 1 9 aux~0_combout $end
$var wire 1 : aux[0]~1_combout $end
$var wire 1 ; S~combout $end
$var wire 1 < aux~2_combout $end
$var wire 1 = Add0~0_combout $end
$var wire 1 > aux~3_combout $end
$var wire 1 ? p1|g~0_combout $end
$var wire 1 @ p1|f~0_combout $end
$var wire 1 A p1|e~0_combout $end
$var wire 1 B p1|d~0_combout $end
$var wire 1 C p1|c~0_combout $end
$var wire 1 D p1|b~0_combout $end
$var wire 1 E p1|a~0_combout $end
$var wire 1 F aux [2] $end
$var wire 1 G aux [1] $end
$var wire 1 H aux [0] $end
$upscope $end
$upscope $end
$enddefinitions $end
#0
$dumpvars
0!
1"
0#
1$
0'
0&
0%
1.
0-
0,
0+
0*
0)
0(
x/
00
11
x2
13
14
15
06
07
18
19
1:
1;
0<
1=
0>
0?
1@
1A
1B
1C
1D
1E
0H
0G
0F
$end
#5000
1!
17
0/
1H
0E
0B
0A
0@
1<
09
1'
1(
1+
1,
1-
#10000
0!
07
1/
#15000
1!
17
0/
1G
0H
1E
0C
1B
1A
1?
19
1&
0'
0(
1*
0+
0,
0.
#20000
0!
07
1/
#25000
1!
17
0/
1H
1C
0A
0=
0<
09
1'
1>
0*
1,
#30000
0!
07
1/
#35000
1!
17
0/
1F
0G
0H
0E
0B
1@
19
1%
0&
0'
1(
1+
0-
#40000
0!
07
1/
#45000
1!
17
0/
1H
1E
0D
1B
1<
09
1'
0(
1)
0+
#50000
0!
07
1/
#55000
1!
17
0/
1G
0H
1D
1A
19
1&
0'
0)
0,
#60000
0!
07
1/
#65000
1!
17
0/
1H
0B
0A
0@
0?
1=
0<
09
1'
0>
1+
1,
1-
1.
#70000
0!
07
1/
#75000
1!
17
0/
0F
0G
0H
1B
1A
1@
19
0%
0&
0'
0+
0,
0-
#80000
0!
07
1/
#85000
1!
17
0/
1H
0E
0B
0A
0@
1<
09
1'
1(
1+
1,
1-
#90000
0!
07
1/
#95000
1!
17
0/
1G
0H
1E
0C
1B
1A
1?
19
1&
0'
0(
1*
0+
0,
0.
#100000
0!
07
1/
#105000
1!
17
0/
1H
1C
0A
0=
0<
09
1'
1>
0*
1,
#110000
0!
07
1/
#115000
1!
17
0/
1F
0G
0H
0E
0B
1@
19
1%
0&
0'
1(
1+
0-
#120000
0!
07
1/
#125000
1!
17
0/
1H
1E
0D
1B
1<
09
1'
0(
1)
0+
#130000
0!
07
1/
#135000
1!
17
0/
1G
0H
1D
1A
19
1&
0'
0)
0,
#140000
0!
07
1/
#145000
1!
17
0/
1H
0B
0A
0@
0?
1=
0<
09
1'
0>
1+
1,
1-
1.
#150000
0!
07
1/
#155000
1!
17
0/
0F
0G
0H
1B
1A
1@
19
0%
0&
0'
0+
0,
0-
#160000
0!
07
1/
#165000
1!
17
0/
1H
0E
0B
0A
0@
1<
09
1'
1(
1+
1,
1-
#170000
0!
07
1/
#175000
1!
17
0/
1G
0H
1E
0C
1B
1A
1?
19
1&
0'
0(
1*
0+
0,
0.
#180000
0!
07
1/
#185000
1!
17
0/
1H
1C
0A
0=
0<
09
1'
1>
0*
1,
#190000
0!
07
1/
#195000
1!
17
0/
1F
0G
0H
0E
0B
1@
19
1%
0&
0'
1(
1+
0-
#200000
0!
07
1/
#205000
1!
17
0/
1H
1E
0D
1B
1<
09
1'
0(
1)
0+
#210000
0!
07
1/
#215000
1!
17
0/
1G
0H
1D
1A
19
1&
0'
0)
0,
#220000
0!
07
1/
#225000
1!
17
0/
1H
0B
0A
0@
0?
1=
0<
09
1'
0>
1+
1,
1-
1.
#230000
0!
07
1/
#235000
1!
17
0/
0F
0G
0H
1B
1A
1@
19
0%
0&
0'
0+
0,
0-
#240000
0!
07
1/
#245000
1!
17
0/
1H
0E
0B
0A
0@
1<
09
1'
1(
1+
1,
1-
#250000
0!
07
1/
#255000
1!
17
0/
1G
0H
1E
0C
1B
1A
1?
19
1&
0'
0(
1*
0+
0,
0.
#260000
0!
07
1/
#265000
1!
17
0/
1H
1C
0A
0=
0<
09
1'
1>
0*
1,
#270000
0"
1#
0!
08
16
07
1/
0>
0:
#275000
1!
17
0/
#280000
0!
07
1/
#285000
1!
17
0/
#290000
0!
07
1/
#295000
1!
17
0/
#300000
1"
0#
0!
18
06
07
1/
1>
1:
#305000
1!
17
0/
1F
0G
0H
0E
0B
1@
19
1%
0&
0'
1(
1+
0-
#310000
0!
07
1/
#315000
1!
17
0/
1H
1E
0D
1B
1<
09
1'
0(
1)
0+
#320000
0!
07
1/
#325000
1!
17
0/
1G
0H
1D
1A
19
1&
0'
0)
0,
#330000
0!
07
1/
#335000
1!
17
0/
1H
0B
0A
0@
0?
1=
0<
09
1'
0>
1+
1,
1-
1.
#340000
0!
07
1/
#345000
1!
17
0/
0F
0G
0H
1B
1A
1@
19
0%
0&
0'
0+
0,
0-
#350000
0!
07
1/
#355000
1!
17
0/
1H
0E
0B
0A
0@
1<
09
1'
1(
1+
1,
1-
#360000
0!
07
1/
#365000
1!
17
0/
1G
0H
1E
0C
1B
1A
1?
19
1&
0'
0(
1*
0+
0,
0.
#370000
0!
07
1/
#375000
1!
17
0/
1H
1C
0A
0=
0<
09
1'
1>
0*
1,
#380000
0!
07
1/
#385000
1!
17
0/
1F
0G
0H
0E
0B
1@
19
1%
0&
0'
1(
1+
0-
#390000
0!
07
1/
#395000
1!
17
0/
1H
1E
0D
1B
1<
09
1'
0(
1)
0+
#400000
0!
07
1/
#405000
1!
17
0/
1G
0H
1D
1A
19
1&
0'
0)
0,
#410000
0!
07
1/
#415000
1!
17
0/
1H
0B
0A
0@
0?
1=
0<
09
1'
0>
1+
1,
1-
1.
#420000
0!
07
1/
#425000
1!
17
0/
0F
0G
0H
1B
1A
1@
19
0%
0&
0'
0+
0,
0-
#430000
0!
07
1/
#435000
1!
17
0/
1H
0E
0B
0A
0@
1<
09
1'
1(
1+
1,
1-
#440000
0!
07
1/
#445000
1!
17
0/
1G
0H
1E
0C
1B
1A
1?
19
1&
0'
0(
1*
0+
0,
0.
#450000
0!
07
1/
#455000
1!
17
0/
1H
1C
0A
0=
0<
09
1'
1>
0*
1,
#460000
0!
07
1/
#465000
1!
17
0/
1F
0G
0H
0E
0B
1@
19
1%
0&
0'
1(
1+
0-
#470000
0!
07
1/
#475000
1!
17
0/
1H
1E
0D
1B
1<
09
1'
0(
1)
0+
#480000
0!
07
1/
#485000
1!
17
0/
1G
0H
1D
1A
19
1&
0'
0)
0,
#490000
0!
07
1/
#495000
1!
17
0/
1H
0B
0A
0@
0?
1=
0<
09
1'
0>
1+
1,
1-
1.
#500000
0!
07
1/
#505000
1!
17
0/
0F
0G
0H
1B
1A
1@
19
0%
0&
0'
0+
0,
0-
#510000
0$
0!
0;
07
1/
0=
1<
1>
#515000
1!
17
0/
1F
1G
1H
0B
0A
0@
09
1%
1&
1'
1+
1,
1-
#520000
0!
07
1/
#525000
1!
17
0/
0H
1B
1A
1@
1?
0<
19
0'
0+
0,
0-
0.
#530000
0!
07
1/
#535000
1!
17
0/
0G
1H
0D
0A
09
0&
1'
1)
1,
#540000
0!
07
1/
#545000
1!
17
0/
0H
0E
1D
0B
1=
1<
19
0'
0>
1(
0)
1+
#550000
0!
07
1/
#555000
1!
17
0/
0F
1G
1H
1E
1B
0@
09
0%
1&
1'
0(
0+
1-
#560000
0!
07
1/
#565000
1!
17
0/
0H
0C
1A
0<
19
0'
1*
0,
#570000
0!
07
1/
#575000
1!
17
0/
0G
1H
0E
1C
0B
0A
0?
09
0&
1'
1(
0*
1+
1,
1.
#580000
0!
07
1/
#585000
1!
17
0/
0H
1E
1B
1A
1@
0=
1<
19
0'
1>
0(
0+
0,
0-
#590000
0!
07
1/
#595000
1!
17
0/
1F
1G
1H
0B
0A
0@
09
1%
1&
1'
1+
1,
1-
#600000
0!
07
1/
#605000
1!
17
0/
0H
1B
1A
1@
1?
0<
19
0'
0+
0,
0-
0.
#610000
0!
07
1/
#615000
1!
17
0/
0G
1H
0D
0A
09
0&
1'
1)
1,
#620000
0!
07
1/
#625000
1!
17
0/
0H
0E
1D
0B
1=
1<
19
0'
0>
1(
0)
1+
#630000
0!
07
1/
#635000
1!
17
0/
0F
1G
1H
1E
1B
0@
09
0%
1&
1'
0(
0+
1-
#640000
0!
07
1/
#645000
1!
17
0/
0H
0C
1A
0<
19
0'
1*
0,
#650000
0!
07
1/
#655000
1!
17
0/
0G
1H
0E
1C
0B
0A
0?
09
0&
1'
1(
0*
1+
1,
1.
#660000
0!
07
1/
#665000
1!
17
0/
0H
1E
1B
1A
1@
0=
1<
19
0'
1>
0(
0+
0,
0-
#670000
0!
07
1/
#675000
1!
17
0/
1F
1G
1H
0B
0A
0@
09
1%
1&
1'
1+
1,
1-
#680000
0!
07
1/
#685000
1!
17
0/
0H
1B
1A
1@
1?
0<
19
0'
0+
0,
0-
0.
#690000
0!
07
1/
#695000
1!
17
0/
0G
1H
0D
0A
09
0&
1'
1)
1,
#700000
0!
07
1/
#705000
1!
17
0/
0H
0E
1D
0B
1=
1<
19
0'
0>
1(
0)
1+
#710000
0!
07
1/
#715000
1!
17
0/
0F
1G
1H
1E
1B
0@
09
0%
1&
1'
0(
0+
1-
#720000
0!
07
1/
#725000
1!
17
0/
0H
0C
1A
0<
19
0'
1*
0,
#730000
0!
07
1/
#735000
1!
17
0/
0G
1H
0E
1C
0B
0A
0?
09
0&
1'
1(
0*
1+
1,
1.
#740000
0!
07
1/
#745000
1!
17
0/
0H
1E
1B
1A
1@
0=
1<
19
0'
1>
0(
0+
0,
0-
#750000
0!
07
1/
#755000
1!
17
0/
1F
1G
1H
0B
0A
0@
09
1%
1&
1'
1+
1,
1-
#760000
0!
07
1/
#765000
1!
17
0/
0H
1B
1A
1@
1?
0<
19
0'
0+
0,
0-
0.
#770000
0!
07
1/
#775000
1!
17
0/
0G
1H
0D
0A
09
0&
1'
1)
1,
#780000
0!
07
1/
#785000
1!
17
0/
0H
0E
1D
0B
1=
1<
19
0'
0>
1(
0)
1+
#790000
0!
07
1/
#795000
1!
17
0/
0F
1G
1H
1E
1B
0@
09
0%
1&
1'
0(
0+
1-
#800000
0!
07
1/
#805000
1!
17
0/
0H
0C
1A
0<
19
0'
1*
0,
#810000
0!
07
1/
#815000
1!
17
0/
0G
1H
0E
1C
0B
0A
0?
09
0&
1'
1(
0*
1+
1,
1.
#820000
0!
07
1/
#825000
1!
17
0/
0H
1E
1B
1A
1@
0=
1<
19
0'
1>
0(
0+
0,
0-
#830000
0!
07
1/
#835000
1!
17
0/
1F
1G
1H
0B
0A
0@
09
1%
1&
1'
1+
1,
1-
#840000
0!
07
1/
#845000
1!
17
0/
0H
1B
1A
1@
1?
0<
19
0'
0+
0,
0-
0.
#850000
0!
07
1/
#855000
1!
17
0/
0G
1H
0D
0A
09
0&
1'
1)
1,
#860000
0!
07
1/
#865000
1!
17
0/
0H
0E
1D
0B
1=
1<
19
0'
0>
1(
0)
1+
#870000
0!
07
1/
#875000
1!
17
0/
0F
1G
1H
1E
1B
0@
09
0%
1&
1'
0(
0+
1-
#880000
0!
07
1/
#885000
1!
17
0/
0H
0C
1A
0<
19
0'
1*
0,
#890000
0!
07
1/
#895000
1!
17
0/
0G
1H
0E
1C
0B
0A
0?
09
0&
1'
1(
0*
1+
1,
1.
#900000
0!
07
1/
#905000
1!
17
0/
0H
1E
1B
1A
1@
0=
1<
19
0'
1>
0(
0+
0,
0-
#910000
0!
07
1/
#915000
1!
17
0/
1F
1G
1H
0B
0A
0@
09
1%
1&
1'
1+
1,
1-
#920000
0!
07
1/
#925000
1!
17
0/
0H
1B
1A
1@
1?
0<
19
0'
0+
0,
0-
0.
#930000
0!
07
1/
#935000
1!
17
0/
0G
1H
0D
0A
09
0&
1'
1)
1,
#940000
0!
07
1/
#945000
1!
17
0/
0H
0E
1D
0B
1=
1<
19
0'
0>
1(
0)
1+
#950000
0!
07
1/
#955000
1!
17
0/
0F
1G
1H
1E
1B
0@
09
0%
1&
1'
0(
0+
1-
#960000
0!
07
1/
#965000
1!
17
0/
0H
0C
1A
0<
19
0'
1*
0,
#970000
0!
07
1/
#975000
1!
17
0/
0G
1H
0E
1C
0B
0A
0?
09
0&
1'
1(
0*
1+
1,
1.
#980000
0!
07
1/
#985000
1!
17
0/
0H
1E
1B
1A
1@
0=
1<
19
0'
1>
0(
0+
0,
0-
#990000
0!
07
1/
#995000
1!
17
0/
1F
1G
1H
0B
0A
0@
09
1%
1&
1'
1+
1,
1-
