Contador_3bits/simulation/qsim/contador.msim.vcd
$comment
	File created using the following command:
		vcd file contador.msim.vcd -direction
$end
$date
	Thu Sep 27 21:48:20 2018
$end
$version
	ModelSim Version 10.1d
$end
$timescale
	1ps
$end
$scope module contador_vlg_vec_tst $end
$var reg 1 ! clock $end
$var reg 1 " E $end
$var reg 1 # R $end
$var reg 1 $ S $end
$var wire 1 % q [2] $end
$var wire 1 & q [1] $end
$var wire 1 ' q [0] $end
$var wire 1 ( saida [6] $end
$var wire 1 ) saida [5] $end
$var wire 1 * saida [4] $end
$var wire 1 + saida [3] $end
$var wire 1 , saida [2] $end
$var wire 1 - saida [1] $end
$var wire 1 . saida [0] $end
$var wire 1 / sampler $end
$scope module i1 $end
$var wire 1 0 gnd $end
$var wire 1 1 vcc $end
$var wire 1 2 unknown $end
$var tri1 1 3 devclrn $end
$var tri1 1 4 devpor $end
$var tri1 1 5 devoe $end
$var wire 1 6 clock~combout $end
$var wire 1 7 aux~0_combout $end
$var wire 1 8 E~combout $end
$var wire 1 9 R~combout $end
$var wire 1 : aux[0]~1_combout $end
$var wire 1 ; S~combout $end
$var wire 1 < aux~2_combout $end
$var wire 1 = Add0~0_combout $end
$var wire 1 > aux~3_combout $end
$var wire 1 ? p1|a~0_combout $end
$var wire 1 @ p1|b~0_combout $end
$var wire 1 A p1|c~0_combout $end
$var wire 1 B p1|d~combout $end
$var wire 1 C p1|e~0_combout $end
$var wire 1 D p1|f~0_combout $end
$var wire 1 E p1|g~combout $end
$var wire 1 F aux [2] $end
$var wire 1 G aux [1] $end
$var wire 1 H aux [0] $end
$upscope $end
$upscope $end
$enddefinitions $end
#0
$dumpvars
0!
0"
0#
0$
x'
x&
x%
x.
x-
x,
x+
x*
x)
x(
x/
00
11
x2
13
14
15
06
x7
08
09
x:
0;
x<
x=
x>
x?
x@
xA
xB
xC
xD
xE
0H
0G
0F
$end
#932
0D
#936
0A
1@
#1287
1?
#1290
1E
#1292
0B
#1293
1C
#2296
0>
#2467
0<
#2470
07
#2720
0=
#3471
0&
0%
#3500
0'
#4775
0)
#5000
1!
0/
#5030
0-
#5052
0,
#5187
1(
#5389
0*
#5417
0+
#5423
0.
#5852
16
#6704
1:
#10000
0!
1/
#10852
06
#15000
1!
0/
#15852
16
#20000
0!
1/
#20852
06
#25000
1!
0/
#25852
16
#30000
0!
1/
#30852
06
#35000
1!
0/
#35852
16
#40000
0!
1/
#40852
06
#45000
1!
0/
#45852
16
#50000
0!
1/
#50852
06
#55000
1!
0/
#55852
16
#60000
0!
1/
#60852
06
#65000
1!
0/
#65852
16
#70000
0!
1/
#70852
06
#75000
1!
0/
#75852
16
#80000
1"
0!
1/
#80852
06
#80999
18
#83295
1>
#83466
1<
#83469
17
#85000
1!
0/
#85852
16
#88789
1H
1G
1F
#89112
0<
07
#89512
1<
#89721
0E
#89740
0C
#89785
1D
#90000
0!
1/
#90079
1E
#90081
1B
#90852
06
#92260
1&
1%
#92289
1'
#93628
1)
#93836
1*
#94206
1+
#95000
1!
0/
#95852
16
#98789
0H
#99112
17
#99512
0<
#99740
1C
#99783
0E
#99784
0B
#99785
0D
#99789
0@
#100000
0!
1/
#100852
06
#102289
0'
#103628
0)
#103680
0(
#103836
0*
#103883
1-
#103909
0+
#105000
1!
0/
#105852
16
#108789
1H
0G
#109112
1<
07
#109512
0<
#109740
0C
#110000
0!
1/
#110852
06
#112260
0&
#112289
1'
#113836
1*
#115000
1!
0/
#115852
16
#118789
0H
#119112
17
#119379
1=
#119512
1<
#119769
0>
#119782
0?
#119784
1B
#119789
1@
#120000
0!
1/
#120852
06
#122289
0'
#123883
0-
#123909
1+
#123918
1.
#125000
1!
0/
#125852
16
#128789
1H
1G
0F
#129112
0<
07
#129512
1<
#129721
1E
1D
#129782
1?
#130000
0!
1/
#130079
0E
#130081
0B
#130852
06
#132260
1&
0%
#132289
1'
#133564
1)
#133918
0.
#134206
0+
#135000
1!
0/
#135852
16
#138789
0H
#139112
17
#139512
0<
#139739
1A
#139740
1C
#140000
0!
1/
#140852
06
#142289
0'
#143836
0*
#143855
1,
#145000
1!
0/
#145852
16
#148789
1H
0G
#149112
1<
07
#149512
0<
#149720
0?
1B
#149721
1E
#149739
0A
#149740
0C
#150000
0!
1/
#150852
06
#152260
0&
#152289
1'
#153618
1(
#153836
1*
#153845
1+
#153855
0,
#153856
1.
#155000
1!
0/
#155852
16
#158789
0H
#159112
17
#159379
0=
#159512
1<
#159740
1C
#159769
1>
#159782
1?
#159784
0B
#159785
0D
#160000
1#
0"
0!
1/
#160852
06
#160862
19
#160999
08
#162289
0'
#163295
0>
#163466
0<
#163469
07
#163628
0)
#163836
0*
#163909
0+
#163918
0.
#165000
1!
0/
#165852
16
#167566
0:
#170000
0!
1/
#170852
06
#175000
1!
0/
#175852
16
#180000
0!
1/
#180852
06
#185000
1!
0/
#185852
16
#190000
0!
1/
#190852
06
#195000
1!
0/
#195852
16
#200000
0!
1/
#200852
06
#205000
1!
0/
#205852
16
#210000
0!
1/
#210852
06
#215000
1!
0/
#215852
16
#220000
0!
1/
#220852
06
#225000
1!
0/
#225852
16
#230000
0!
1/
#230852
06
#235000
1!
0/
#235852
16
#240000
0!
1/
#240852
06
#245000
1!
0/
#245852
16
#250000
0!
1/
#250852
06
#255000
1!
0/
#255852
16
#260000
1"
0!
1/
#260852
06
#260999
18
#263264
1:
#263295
1>
#263466
1<
#263469
17
#265000
1!
0/
#265852
16
#268789
1H
1G
1F
#269112
0<
07
#269512
1<
#269721
0E
#269740
0C
#269785
1D
#270000
0!
1/
#270079
1E
#270081
1B
#270852
06
#272260
1&
1%
#272289
1'
#273628
1)
#273836
1*
#274206
1+
#275000
1!
0/
#275852
16
#278789
0H
#279112
17
#279512
0<
#279740
1C
#279783
0E
#279784
0B
#279785
0D
#279789
0@
#280000
0!
1/
#280852
06
#282289
0'
#283628
0)
#283680
0(
#283836
0*
#283883
1-
#283909
0+
#285000
1!
0/
#285852
16
#288789
1H
0G
#289112
1<
07
#289512
0<
#289740
0C
#290000
0!
1/
#290852
06
#292260
0&
#292289
1'
#293836
1*
#295000
1!
0/
#295852
16
#298789
0H
#299112
17
#299379
1=
#299512
1<
#299769
0>
#299782
0?
#299784
1B
#299789
1@
#300000
0!
1/
#300852
06
#302289
0'
#303883
0-
#303909
1+
#303918
1.
#305000
1!
0/
#305852
16
#308789
1H
1G
0F
#309112
0<
07
#309512
1<
#309721
1E
1D
#309782
1?
#310000
0!
1/
#310079
0E
#310081
0B
#310852
06
#312260
1&
0%
#312289
1'
#313564
1)
#313918
0.
#314206
0+
#315000
1!
0/
#315852
16
#318789
0H
#319112
17
#319512
0<
#319739
1A
#319740
1C
#320000
0!
1/
#320852
06
#322289
0'
#323836
0*
#323855
1,
#325000
1!
0/
#325852
16
#328789
1H
0G
#329112
1<
07
#329512
0<
#329720
0?
1B
#329721
1E
#329739
0A
#329740
0C
#330000
0!
1/
#330852
06
#332260
0&
#332289
1'
#333618
1(
#333836
1*
#333845
1+
#333855
0,
#333856
1.
#335000
1!
0/
#335852
16
#338789
0H
#339112
17
#339379
0=
#339512
1<
#339740
1C
#339769
1>
#339782
1?
#339784
0B
#339785
0D
#340000
0!
1/
#340852
06
#342289
0'
#343628
0)
#343836
0*
#343909
0+
#343918
0.
#345000
1!
0/
#345852
16
#348789
1H
1G
1F
#349112
0<
07
#349512
1<
#349721
0E
#349740
0C
#349785
1D
#350000
0!
1/
#350079
1E
#350081
1B
#350852
06
#352260
1&
1%
#352289
1'
#353628
1)
#353836
1*
#354206
1+
#355000
1!
0/
#355852
16
#358789
0H
#359112
17
#359512
0<
#359740
1C
#359783
0E
#359784
0B
#359785
0D
#359789
0@
#360000
0!
1/
#360852
06
#362289
0'
#363628
0)
#363680
0(
#363836
0*
#363883
1-
#363909
0+
#365000
1!
0/
#365852
16
#368789
1H
0G
#369112
1<
07
#369512
0<
#369740
0C
#370000
0!
1/
#370852
06
#372260
0&
#372289
1'
#373836
1*
#375000
1!
0/
#375852
16
#378789
0H
#379112
17
#379379
1=
#379512
1<
#379769
0>
#379782
0?
#379784
1B
#379789
1@
#380000
1$
0#
0"
0!
1/
#380852
06
#380862
09
#380999
08
1;
#382289
0'
#383264
0:
#383373
0<
#383469
07
#383719
0=
#383883
0-
#383909
1+
#383918
1.
#385000
1!
0/
#385852
16
#387566
1:
#388789
0F
#389515
1=
#390000
0!
1/
#390076
1?
#390079
1E
#390081
0B
#390082
1C
#390852
06
#392260
0%
#393976
1(
#394178
0*
#394206
0+
#394212
0.
#395000
1!
0/
#395852
16
#400000
0!
1/
#400852
06
#405000
1!
0/
#405852
16
#410000
0!
1/
#410852
06
#415000
1!
0/
#415852
16
#420000
0!
1/
#420852
06
#425000
1!
0/
#425852
16
#430000
0!
1/
#430852
06
#435000
1!
0/
#435852
16
#440000
0!
1/
#440852
06
#445000
1!
0/
#445852
16
#450000
0!
1/
#450852
06
#455000
1!
0/
#455852
16
#460000
0!
1/
#460852
06
#465000
1!
0/
#465852
16
#470000
0!
1/
#470852
06
#475000
1!
0/
#475852
16
#480000
0!
1/
#480852
06
#485000
1!
0/
#485852
16
#490000
0!
1/
#490852
06
#495000
1!
0/
#495852
16
#500000
1"
0!
1/
#500852
06
#500999
18
#503469
17
#505000
1!
0/
#505852
16
#508789
1H
#509112
07
#509512
1<
#509740
0C
#509782
0?
#509784
1B
#509785
1D
#510000
0!
1/
#510852
06
#512289
1'
#513628
1)
#513836
1*
#513909
1+
#513918
1.
#515000
1!
0/
#515852
16
#518789
0H
1G
#519112
0<
17
#519512
1<
#519721
0E
#519725
1A
#519740
1C
#519782
1?
#519784
0B
#520000
0!
1/
#520852
06
#522260
1&
#522289
0'
#523618
0(
#523836
0*
#523841
1,
#523909
0+
#523918
0.
#525000
1!
0/
#525852
16
#528789
1H
#529112
07
#529379
0=
#529512
0<
#529739
0A
#529740
0C
#529769
1>
#530000
0!
1/
#530852
06
#532289
1'
#533836
1*
#533855
0,
#535000
1!
0/
#535852
16
#538789
0H
0G
1F
#539112
1<
17
#539512
0<
#539721
1E
0D
#539740
1C
#540000
0!
1/
#540076
0?
#540079
0E
#540081
1B
#540082
0C
#540852
06
#542260
0&
1%
#542289
0'
#543564
0)
#544206
1+
#544212
1.
#545000
1!
0/
#545852
16
#548789
1H
#549112
07
#549512
1<
#549782
1?
#549784
0B
#549789
0@
#550000
0!
1/
#550852
06
#552289
1'
#553883
1-
#553909
0+
#553918
0.
#555000
1!
0/
#555852
16
#558789
0H
1G
#559112
0<
17
#559512
1<
#559721
1C
#560000
0!
1/
#560852
06
#562260
1&
#562289
0'
#563817
0*
#565000
1!
0/
#565852
16
#568789
1H
#569112
07
#569379
1=
#569512
0<
#569740
0C
#569769
0>
#569783
1E
#569784
1B
#569785
1D
#569789
1@
#570000
0!
1/
#570852
06
#572289
1'
#573628
1)
#573680
1(
#573836
1*
#573883
0-
#573909
1+
#575000
1!
0/
#575852
16
#578789
0H
0G
0F
#579112
1<
17
#579512
0<
#579720
0?
#579783
0E
#579785
0D
#580000
0!
1/
#580076
1?
#580079
1E
#580081
0B
#580082
1C
#580852
06
#582260
0&
0%
#582289
0'
#583628
0)
#584178
0*
#584206
0+
#585000
1!
0/
#585852
16
#588789
1H
#589112
07
#589512
1<
#589740
0C
#589782
0?
#589784
1B
#589785
1D
#590000
0!
1/
#590852
06
#592289
1'
#593628
1)
#593836
1*
#593909
1+
#593918
1.
#595000
1!
0/
#595852
16
#598789
0H
1G
#599112
0<
17
#599512
1<
#599721
0E
#599725
1A
#599740
1C
#599782
1?
#599784
0B
#600000
0!
1/
#600852
06
#602260
1&
#602289
0'
#603618
0(
#603836
0*
#603841
1,
#603909
0+
#603918
0.
#605000
1!
0/
#605852
16
#608789
1H
#609112
07
#609379
0=
#609512
0<
#609739
0A
#609740
0C
#609769
1>
#610000
0!
1/
#610852
06
#612289
1'
#613836
1*
#613855
0,
#615000
1!
0/
#615852
16
#618789
0H
0G
1F
#619112
1<
17
#619512
0<
#619721
1E
0D
#619740
1C
#620000
1#
0"
0!
1/
#620076
0?
#620079
0E
#620081
1B
#620082
0C
#620852
06
#620862
19
#620999
08
#622260
0&
1%
#622289
0'
#623295
0>
#623469
07
#623564
0)
#624206
1+
#624212
1.
#625000
1!
0/
#625852
16
#627566
0:
#630000
0!
1/
#630852
06
#635000
1!
0/
#635852
16
#640000
0!
1/
#640852
06
#645000
1!
0/
#645852
16
#650000
0!
1/
#650852
06
#655000
1!
0/
#655852
16
#660000
0!
1/
#660852
06
#665000
1!
0/
#665852
16
#670000
0!
1/
#670852
06
#675000
1!
0/
#675852
16
#680000
0!
1/
#680852
06
#685000
1!
0/
#685852
16
#690000
0!
1/
#690852
06
#695000
1!
0/
#695852
16
#700000
0!
1/
#700852
06
#705000
1!
0/
#705852
16
#710000
0!
1/
#710852
06
#715000
1!
0/
#715852
16
#720000
0!
1/
#720852
06
#725000
1!
0/
#725852
16
#730000
0!
1/
#730852
06
#735000
1!
0/
#735852
16
#740000
1"
0!
1/
#740852
06
#740999
18
#743264
1:
#743295
1>
#743469
17
#745000
1!
0/
#745852
16
#748789
1H
#749112
07
#749512
1<
#749782
1?
#749784
0B
#749789
0@
#750000
0!
1/
#750852
06
#752289
1'
#753883
1-
#753909
0+
#753918
0.
#755000
1!
0/
#755852
16
#758789
0H
1G
#759112
0<
17
#759512
1<
#759721
1C
#760000
0!
1/
#760852
06
#762260
1&
#762289
0'
#763817
0*
#765000
1!
0/
#765852
16
#768789
1H
#769112
07
#769379
1=
#769512
0<
#769740
0C
#769769
0>
#769783
1E
#769784
1B
#769785
1D
#769789
1@
#770000
0!
1/
#770852
06
#772289
1'
#773628
1)
#773680
1(
#773836
1*
#773883
0-
#773909
1+
#775000
1!
0/
#775852
16
#778789
0H
0G
0F
#779112
1<
17
#779512
0<
#779720
0?
#779783
0E
#779785
0D
#780000
0!
1/
#780076
1?
#780079
1E
#780081
0B
#780082
1C
#780852
06
#782260
0&
0%
#782289
0'
#783628
0)
#784178
0*
#784206
0+
#785000
1!
0/
#785852
16
#788789
1H
#789112
07
#789512
1<
#789740
0C
#789782
0?
#789784
1B
#789785
1D
#790000
0!
1/
#790852
06
#792289
1'
#793628
1)
#793836
1*
#793909
1+
#793918
1.
#795000
1!
0/
#795852
16
#798789
0H
1G
#799112
0<
17
#799512
1<
#799721
0E
#799725
1A
#799740
1C
#799782
1?
#799784
0B
#800000
0!
1/
#800852
06
#802260
1&
#802289
0'
#803618
0(
#803836
0*
#803841
1,
#803909
0+
#803918
0.
#805000
1!
0/
#805852
16
#808789
1H
#809112
07
#809379
0=
#809512
0<
#809739
0A
#809740
0C
#809769
1>
#810000
0!
1/
#810852
06
#812289
1'
#813836
1*
#813855
0,
#815000
1!
0/
#815852
16
#818789
0H
0G
1F
#819112
1<
17
#819512
0<
#819721
1E
0D
#819740
1C
#820000
0!
1/
#820076
0?
#820079
0E
#820081
1B
#820082
0C
#820852
06
#822260
0&
1%
#822289
0'
#823564
0)
#824206
1+
#824212
1.
#825000
1!
0/
#825852
16
#828789
1H
#829112
07
#829512
1<
#829782
1?
#829784
0B
#829789
0@
#830000
0!
1/
#830852
06
#832289
1'
#833883
1-
#833909
0+
#833918
0.
#835000
1!
0/
#835852
16
#838789
0H
1G
#839112
0<
17
#839512
1<
#839721
1C
#840000
0!
1/
#840852
06
#842260
1&
#842289
0'
#843817
0*
#845000
1!
0/
#845852
16
#848789
1H
#849112
07
#849379
1=
#849512
0<
#849740
0C
#849769
0>
#849783
1E
#849784
1B
#849785
1D
#849789
1@
#850000
0!
1/
#850852
06
#852289
1'
#853628
1)
#853680
1(
#853836
1*
#853883
0-
#853909
1+
#855000
1!
0/
#855852
16
#858789
0H
0G
0F
#859112
1<
17
#859512
0<
#859720
0?
#859783
0E
#859785
0D
#860000
0$
0#
0"
0!
1/
#860076
1?
#860079
1E
#860081
0B
#860082
1C
#860852
06
#860862
09
#860999
08
0;
#862260
0&
0%
#862289
0'
#863264
0:
#863469
07
#863628
0)
#863719
0=
#864178
0*
#864206
0+
#865000
1!
0/
#865852
16
#867566
1:
#870000
0!
1/
#870852
06
#875000
1!
0/
#875852
16
#880000
0!
1/
#880852
06
#885000
1!
0/
#885852
16
#890000
0!
1/
#890852
06
#895000
1!
0/
#895852
16
#900000
0!
1/
#900852
06
#905000
1!
0/
#905852
16
#910000
0!
1/
#910852
06
#915000
1!
0/
#915852
16
#920000
0!
1/
#920852
06
#925000
1!
0/
#925852
16
#930000
0!
1/
#930852
06
#935000
1!
0/
#935852
16
#940000
0!
1/
#940852
06
#945000
1!
0/
#945852
16
#950000
0!
1/
#950852
06
#955000
1!
0/
#955852
16
#960000
0!
1/
#960852
06
#965000
1!
0/
#965852
16
#970000
0!
1/
#970852
06
#975000
1!
0/
#975852
16
#980000
0!
1/
#980852
06
#985000
1!
0/
#985852
16
#990000
0!
1/
#990852
06
#995000
1!
0/
#995852
16
