Counter/simulation/qsim/Counter.msim.vcd
$comment
	File created using the following command:
		vcd file Counter.msim.vcd -direction
$end
$date
	Mon Sep 24 15:42:02 2018
$end
$version
	ModelSim Version 10.1d
$end
$timescale
	1ps
$end
$scope module Counter_vlg_vec_tst $end
$var reg 3 ! e [2:0] $end
$var reg 3 " s [2:0] $end
$var wire 1 # n [2] $end
$var wire 1 $ n [1] $end
$var wire 1 % n [0] $end
$var wire 1 & sampler $end
$scope module i1 $end
$var wire 1 ' gnd $end
$var wire 1 ( vcc $end
$var wire 1 ) unknown $end
$var tri1 1 * devclrn $end
$var tri1 1 + devpor $end
$var tri1 1 , devoe $end
$var wire 1 - n~0_combout $end
$var wire 1 . n~1_combout $end
$var wire 1 / n~2_combout $end
$var wire 1 0 n~4_combout $end
$var wire 1 1 n~3_combout $end
$var wire 1 2 n~5_combout $end
$var wire 1 3 s~combout [2] $end
$var wire 1 4 s~combout [1] $end
$var wire 1 5 s~combout [0] $end
$var wire 1 6 e~combout [2] $end
$var wire 1 7 e~combout [1] $end
$var wire 1 8 e~combout [0] $end
$upscope $end
$upscope $end
$enddefinitions $end
#0
$dumpvars
b0 !
b0 "
0%
0$
0#
x&
0'
1(
x)
1*
1+
1,
0-
0.
0/
00
01
02
05
04
03
08
07
06
$end
#15000
b1 !
18
0&
11
1/
1-
12
1$
1%
1#
#30000
b11 !
b10 !
08
17
1&
01
0/
0-
02
0$
0%
0#
#45000
b11 !
18
0&
11
1/
1-
12
1$
1%
1#
#60000
b111 !
b101 !
b100 !
08
07
16
1&
01
0/
0-
1.
02
0$
0%
0#
#75000
b101 !
18
0&
10
1-
1%
#90000
b111 !
b110 !
08
17
1&
00
0-
0%
#105000
b111 !
18
0&
10
1-
1%
#120000
b1 "
b11 !
b1 !
b0 !
08
07
06
15
1&
00
0-
0%
#135000
b1 !
18
0&
#150000
b11 !
b10 !
08
17
1&
1-
1%
#165000
b11 !
18
0&
0-
0%
#180000
b111 !
b101 !
b100 !
08
07
16
1&
0.
#195000
b101 !
18
0&
10
1/
1$
#210000
b111 !
b110 !
08
17
1&
00
0/
1-
0$
1%
#225000
b111 !
18
0&
10
1/
0-
1$
0%
#240000
b11 "
b10 "
b11 !
b1 !
b0 !
08
07
06
05
14
1&
00
0/
0$
#255000
b1 !
18
0&
10
1-
1%
#270000
b11 !
b10 !
08
17
1&
00
1/
0-
1$
0%
#285000
b11 !
18
0&
10
0/
1-
0$
1%
#300000
b111 !
b101 !
b100 !
08
07
16
1&
00
0-
1.
0%
#315000
b101 !
18
0&
10
1/
1-
1$
1%
#330000
b111 !
b110 !
08
17
1&
00
0-
0%
#345000
b111 !
18
0&
10
1-
1%
#360000
b11 "
b11 !
b1 !
b0 !
08
07
06
15
1&
00
0/
0-
0$
0%
#375000
b1 !
18
0&
10
1/
1$
#390000
b11 !
b10 !
08
17
1&
00
1-
1%
#405000
b11 !
18
0&
10
0-
0%
#420000
b111 !
b101 !
b100 !
08
07
16
1&
00
0/
0.
0$
#435000
b101 !
18
0&
11
12
1#
#450000
b111 !
b110 !
08
17
1&
01
1/
1-
02
1$
1%
0#
#465000
b111 !
18
0&
11
0/
0-
12
0$
0%
1#
#480000
b111 "
b101 "
b100 "
b11 !
b1 !
b0 !
08
07
06
05
04
13
1&
01
02
0#
#495000
b1 !
18
0&
11
1/
1-
1$
1%
#510000
b11 !
b10 !
08
17
1&
01
0/
0-
12
0$
0%
1#
#525000
b11 !
18
0&
11
1/
1-
02
1$
1%
0#
#540000
b111 !
b101 !
b100 !
08
07
16
1&
01
0/
0-
1.
0$
0%
#555000
b101 !
18
0&
10
1-
12
1%
1#
#570000
b111 !
b110 !
08
17
1&
00
0-
0%
#585000
b111 !
18
0&
10
1-
1%
#600000
b101 "
b11 !
b1 !
b0 !
08
07
06
15
1&
00
0-
02
0%
0#
#615000
b1 !
18
0&
#630000
b11 !
b10 !
08
17
1&
1-
12
1%
1#
#645000
b11 !
18
0&
0-
0%
#660000
b111 !
b101 !
b100 !
08
07
16
1&
02
0.
0#
#675000
b101 !
18
0&
10
1/
12
1$
1#
#690000
b111 !
b110 !
08
17
1&
00
0/
1-
0$
1%
#705000
b111 !
18
0&
10
1/
0-
1$
0%
#720000
b111 "
b110 "
b11 !
b1 !
b0 !
08
07
06
05
14
1&
00
0/
02
0$
0#
#735000
b1 !
18
0&
10
1-
12
1%
1#
#750000
b11 !
b10 !
08
17
1&
00
1/
0-
1$
0%
#765000
b11 !
18
0&
10
0/
1-
0$
1%
#780000
b111 !
b101 !
b100 !
08
07
16
1&
00
0-
1.
02
0%
0#
#795000
b101 !
18
0&
10
1/
1-
12
1$
1%
1#
#810000
b111 !
b110 !
08
17
1&
00
0-
0%
#825000
b111 !
18
0&
10
1-
1%
#840000
b111 "
b11 !
b1 !
b0 !
08
07
06
15
1&
00
0/
0-
02
0$
0%
0#
#855000
b1 !
18
0&
10
1/
12
1$
1#
#870000
b11 !
b10 !
08
17
1&
00
1-
1%
#885000
b11 !
18
0&
10
0-
0%
#900000
b111 !
b101 !
b100 !
08
07
16
1&
00
0/
0.
02
0$
0#
#915000
b101 !
18
0&
11
#930000
b111 !
b110 !
08
17
1&
01
1/
1-
12
1$
1%
1#
#945000
b111 !
18
0&
11
0/
0-
02
0$
0%
0#
#960000
b11 "
b1 "
b0 "
b11 !
b1 !
b0 !
08
07
06
05
04
03
1&
01
12
02
1#
0#
#975000
b1 !
18
0&
11
1/
1-
12
1$
1%
1#
#990000
b11 !
b10 !
08
17
1&
01
0/
0-
02
0$
0%
0#
